{
  "id": "download_action_form",
  "title": "Download Action Form",
  "system": true,
  "formKey": "action_download",
  "description": "",
  "customModule": null,
  "i18n": null,
  "definition": {
    "display": "form",
    "components": [
      {
        "label": "Panel",
        "scrollableContent": true,
        "collapsible": false,
        "mask": false,
        "tableView": false,
        "alwaysEnabled": false,
        "encrypted": false,
        "validate": {
          "customMessage": "",
          "json": "",
          "required": false,
          "custom": "",
          "customPrivate": false
        },
        "key": "panel2",
        "properties": {},
        "conditional": {
          "json": "",
          "show": "",
          "when": "",
          "eq": ""
        },
        "customConditional": "",
        "logic": [],
        "attributes": {},
        "type": "panel",
        "input": false,
        "components": [
          {
            "label": "Columns",
            "columns": [
              {
                "components": [
                  {
                    "label": "Id",
                    "allowMultipleMasks": false,
                    "showWordCount": false,
                    "showCharCount": false,
                    "tableView": true,
                    "alwaysEnabled": false,
                    "defaultValue": "",
                    "inputFormat": "plain",
                    "encrypted": false,
                    "validate": {
                      "customMessage": "",
                      "json": "",
                      "required": false,
                      "custom": "",
                      "customPrivate": false,
                      "minLength": "",
                      "maxLength": "",
                      "minWords": "",
                      "maxWords": "",
                      "pattern": ""
                    },
                    "key": "moduleId",
                    "properties": {},
                    "conditional": {
                      "show": "",
                      "when": "",
                      "json": "",
                      "eq": ""
                    },
                    "customConditional": "",
                    "logic": [],
                    "attributes": {},
                    "type": "textfield",
                    "input": true,
                    "tags": [],
                    "widget": {
                      "type": "",
                      "format": "yyyy-MM-dd hh:mm a",
                      "dateFormat": "yyyy-MM-dd hh:mm a",
                      "saveAs": "text"
                    },
                    "placeholder": "",
                    "prefix": "",
                    "customClass": "",
                    "suffix": "",
                    "multiple": false,
                    "protected": false,
                    "unique": false,
                    "persistent": true,
                    "hidden": false,
                    "clearOnHide": true,
                    "dataGridLabel": false,
                    "labelPosition": "top",
                    "labelWidth": 30,
                    "labelMargin": 3,
                    "description": "",
                    "errorLabel": "",
                    "tooltip": "",
                    "hideLabel": false,
                    "tabindex": "",
                    "disabled": false,
                    "autofocus": false,
                    "dbIndex": false,
                    "customDefaultValue": "",
                    "calculateValue": "",
                    "allowCalculateOverride": false,
                    "refreshOn": "",
                    "clearOnRefresh": false,
                    "validateOn": "change",
                    "mask": false,
                    "inputType": "text",
                    "inputMask": "",
                    "id": "ew2shi"
                  },
                  {
                    "label": "Name",
                    "allowMultipleMasks": false,
                    "showWordCount": false,
                    "showCharCount": false,
                    "tableView": true,
                    "alwaysEnabled": false,
                    "defaultValue": "",
                    "inputFormat": "plain",
                    "encrypted": false,
                    "validate": {
                      "customMessage": "",
                      "json": "",
                      "required": false,
                      "custom": "",
                      "customPrivate": false,
                      "minLength": "",
                      "maxLength": "",
                      "minWords": "",
                      "maxWords": "",
                      "pattern": ""
                    },
                    "key": "name",
                    "properties": {},
                    "conditional": {
                      "json": "",
                      "show": "",
                      "when": "",
                      "eq": ""
                    },
                    "customConditional": "",
                    "logic": [],
                    "attributes": {},
                    "type": "textfield",
                    "input": true,
                    "tags": [],
                    "widget": {
                      "type": "",
                      "format": "yyyy-MM-dd hh:mm a",
                      "dateFormat": "yyyy-MM-dd hh:mm a",
                      "saveAs": "text"
                    },
                    "placeholder": "",
                    "prefix": "",
                    "customClass": "",
                    "suffix": "",
                    "multiple": false,
                    "protected": false,
                    "unique": false,
                    "persistent": true,
                    "hidden": false,
                    "clearOnHide": true,
                    "dataGridLabel": false,
                    "labelPosition": "top",
                    "labelWidth": 30,
                    "labelMargin": 3,
                    "description": "",
                    "errorLabel": "",
                    "tooltip": "",
                    "hideLabel": false,
                    "tabindex": "",
                    "disabled": false,
                    "autofocus": false,
                    "dbIndex": false,
                    "customDefaultValue": "",
                    "calculateValue": "",
                    "allowCalculateOverride": false,
                    "refreshOn": "",
                    "clearOnRefresh": false,
                    "validateOn": "change",
                    "mask": false,
                    "inputType": "text",
                    "inputMask": "",
                    "id": "exquii9"
                  }
                ],
                "xs": 0,
                "sm": 12,
                "md": 6,
                "lg": 0,
                "xl": 0,
                "classes": "",
                "type": "column",
                "input": false,
                "hideOnChildrenHidden": false,
                "key": "column",
                "tableView": true,
                "label": "Column",
                "index": 0,
                "placeholder": "",
                "prefix": "",
                "customClass": "",
                "suffix": "",
                "multiple": false,
                "defaultValue": null,
                "protected": false,
                "unique": false,
                "persistent": true,
                "hidden": false,
                "clearOnHide": true,
                "dataGridLabel": false,
                "labelPosition": "top",
                "labelWidth": 30,
                "labelMargin": 3,
                "description": "",
                "errorLabel": "",
                "tooltip": "",
                "hideLabel": false,
                "tabindex": "",
                "disabled": false,
                "autofocus": false,
                "dbIndex": false,
                "customDefaultValue": "",
                "calculateValue": "",
                "allowCalculateOverride": false,
                "widget": null,
                "refreshOn": "",
                "clearOnRefresh": false,
                "validateOn": "change",
                "validate": {
                  "required": false,
                  "custom": "",
                  "customPrivate": false
                },
                "conditional": {
                  "show": null,
                  "when": null,
                  "eq": ""
                },
                "id": "eqlzog"
              },
              {
                "xs": 0,
                "sm": 12,
                "md": 6,
                "lg": 0,
                "xl": 0,
                "classes": "",
                "index": 1,
                "type": "column",
                "input": false,
                "hideOnChildrenHidden": false,
                "key": "column",
                "tableView": true,
                "label": "Column",
                "components": [
                  {
                    "label": "Key",
                    "allowMultipleMasks": false,
                    "showWordCount": false,
                    "showCharCount": false,
                    "tableView": true,
                    "alwaysEnabled": false,
                    "defaultValue": "",
                    "inputFormat": "plain",
                    "encrypted": false,
                    "validate": {
                      "customMessage": "",
                      "json": "",
                      "required": false,
                      "custom": "",
                      "customPrivate": false,
                      "minLength": "",
                      "maxLength": "",
                      "minWords": "",
                      "maxWords": "",
                      "pattern": ""
                    },
                    "key": "key",
                    "properties": {},
                    "conditional": {
                      "json": "",
                      "show": "",
                      "when": "",
                      "eq": ""
                    },
                    "customConditional": "",
                    "logic": [],
                    "attributes": {},
                    "type": "textfield",
                    "input": true,
                    "tags": [],
                    "widget": {
                      "type": "",
                      "format": "yyyy-MM-dd hh:mm a",
                      "dateFormat": "yyyy-MM-dd hh:mm a",
                      "saveAs": "text"
                    },
                    "placeholder": "",
                    "prefix": "",
                    "customClass": "",
                    "suffix": "",
                    "multiple": false,
                    "protected": false,
                    "unique": false,
                    "persistent": true,
                    "hidden": false,
                    "clearOnHide": true,
                    "dataGridLabel": false,
                    "labelPosition": "top",
                    "labelWidth": 30,
                    "labelMargin": 3,
                    "description": "",
                    "errorLabel": "",
                    "tooltip": "",
                    "hideLabel": false,
                    "tabindex": "",
                    "disabled": false,
                    "autofocus": false,
                    "dbIndex": false,
                    "customDefaultValue": "",
                    "calculateValue": "",
                    "allowCalculateOverride": false,
                    "refreshOn": "",
                    "clearOnRefresh": false,
                    "validateOn": "change",
                    "mask": false,
                    "inputType": "text",
                    "inputMask": "",
                    "id": "ekjjpzu"
                  }
                ],
                "placeholder": "",
                "prefix": "",
                "customClass": "",
                "suffix": "",
                "multiple": false,
                "defaultValue": null,
                "protected": false,
                "unique": false,
                "persistent": true,
                "hidden": false,
                "clearOnHide": true,
                "dataGridLabel": false,
                "labelPosition": "top",
                "labelWidth": 30,
                "labelMargin": 3,
                "description": "",
                "errorLabel": "",
                "tooltip": "",
                "hideLabel": false,
                "tabindex": "",
                "disabled": false,
                "autofocus": false,
                "dbIndex": false,
                "customDefaultValue": "",
                "calculateValue": "",
                "allowCalculateOverride": false,
                "widget": null,
                "refreshOn": "",
                "clearOnRefresh": false,
                "validateOn": "change",
                "validate": {
                  "required": false,
                  "custom": "",
                  "customPrivate": false
                },
                "conditional": {
                  "show": null,
                  "when": null,
                  "eq": ""
                },
                "id": "evapw8g"
              }
            ],
            "mask": false,
            "tableView": false,
            "alwaysEnabled": false,
            "key": "columns",
            "properties": {},
            "conditional": {
              "json": "",
              "show": "",
              "when": "",
              "eq": ""
            },
            "customConditional": "",
            "logic": [],
            "attributes": {},
            "type": "columns",
            "input": false,
            "tags": [],
            "placeholder": "",
            "prefix": "",
            "customClass": "",
            "suffix": "",
            "multiple": false,
            "defaultValue": null,
            "protected": false,
            "unique": false,
            "persistent": false,
            "hidden": false,
            "clearOnHide": false,
            "dataGridLabel": false,
            "labelPosition": "top",
            "labelWidth": 30,
            "labelMargin": 3,
            "description": "",
            "errorLabel": "",
            "tooltip": "",
            "hideLabel": false,
            "tabindex": "",
            "disabled": false,
            "autofocus": false,
            "dbIndex": false,
            "customDefaultValue": "",
            "calculateValue": "",
            "allowCalculateOverride": false,
            "widget": null,
            "refreshOn": "",
            "clearOnRefresh": false,
            "validateOn": "change",
            "validate": {
              "required": false,
              "custom": "",
              "customPrivate": false
            },
            "inlineColumns": false,
            "autoAdjust": false,
            "hideOnChildrenHidden": false,
            "id": "ey2orwm"
          },
          {
            "label": "Container",
            "hideLabel": true,
            "mask": false,
            "tableView": true,
            "alwaysEnabled": false,
            "encrypted": false,
            "validate": {
              "customMessage": "",
              "json": "",
              "required": false,
              "custom": "",
              "customPrivate": false
            },
            "key": "config",
            "properties": {},
            "conditional": {
              "json": "",
              "show": "",
              "when": "",
              "eq": ""
            },
            "customConditional": "",
            "logic": [],
            "attributes": {},
            "type": "container",
            "input": true,
            "components": [
              {
                "label": "URI",
                "allowMultipleMasks": false,
                "showWordCount": false,
                "showCharCount": false,
                "tableView": true,
                "alwaysEnabled": false,
                "defaultValue": "",
                "inputFormat": "plain",
                "encrypted": false,
                "validate": {
                  "customMessage": "",
                  "json": "",
                  "required": false,
                  "custom": "",
                  "customPrivate": false,
                  "minLength": "",
                  "maxLength": "",
                  "minWords": "",
                  "maxWords": "",
                  "pattern": ""
                },
                "key": "url",
                "properties": {},
                "conditional": {
                  "json": "",
                  "show": "",
                  "when": "",
                  "eq": ""
                },
                "customConditional": "",
                "logic": [],
                "attributes": {},
                "type": "textfield",
                "input": true,
                "tags": [],
                "widget": {
                  "type": "",
                  "format": "yyyy-MM-dd hh:mm a",
                  "dateFormat": "yyyy-MM-dd hh:mm a",
                  "saveAs": "text"
                },
                "placeholder": "",
                "prefix": "",
                "customClass": "",
                "suffix": "",
                "multiple": false,
                "protected": false,
                "unique": false,
                "persistent": true,
                "hidden": false,
                "clearOnHide": true,
                "dataGridLabel": false,
                "labelPosition": "top",
                "labelWidth": 30,
                "labelMargin": 3,
                "description": "",
                "errorLabel": "",
                "tooltip": "",
                "hideLabel": false,
                "tabindex": "",
                "disabled": false,
                "autofocus": false,
                "dbIndex": false,
                "customDefaultValue": "",
                "calculateValue": "",
                "allowCalculateOverride": false,
                "refreshOn": "",
                "clearOnRefresh": false,
                "validateOn": "change",
                "mask": false,
                "inputType": "text",
                "inputMask": "",
                "id": "ef0zv5p"
              }
            ],
            "tags": [],
            "placeholder": "",
            "prefix": "",
            "customClass": "",
            "suffix": "",
            "multiple": false,
            "defaultValue": null,
            "protected": false,
            "unique": false,
            "persistent": true,
            "hidden": false,
            "clearOnHide": true,
            "dataGridLabel": false,
            "labelPosition": "top",
            "labelWidth": 30,
            "labelMargin": 3,
            "description": "",
            "errorLabel": "",
            "tooltip": "",
            "tabindex": "",
            "disabled": false,
            "autofocus": false,
            "dbIndex": false,
            "customDefaultValue": "",
            "calculateValue": "",
            "allowCalculateOverride": false,
            "widget": null,
            "refreshOn": "",
            "clearOnRefresh": false,
            "validateOn": "change",
            "tree": true,
            "id": "emqvzrr"
          }
        ],
        "tags": [],
        "placeholder": "",
        "prefix": "",
        "customClass": "",
        "suffix": "",
        "multiple": false,
        "defaultValue": null,
        "protected": false,
        "unique": false,
        "persistent": false,
        "hidden": false,
        "clearOnHide": false,
        "dataGridLabel": false,
        "labelPosition": "top",
        "labelWidth": 30,
        "labelMargin": 3,
        "description": "",
        "errorLabel": "",
        "tooltip": "",
        "hideLabel": false,
        "tabindex": "",
        "disabled": false,
        "autofocus": false,
        "dbIndex": false,
        "customDefaultValue": "",
        "calculateValue": "",
        "allowCalculateOverride": false,
        "widget": null,
        "refreshOn": "",
        "clearOnRefresh": false,
        "validateOn": "change",
        "title": "",
        "theme": "default",
        "breadcrumb": "default",
        "lazyLoad": false,
        "id": "ex4o7qj"
      },
      {
        "label": "Columns",
        "columns": [
          {
            "components": [
              {
                "label": "Cancel",
                "action": "event",
                "state": "",
                "showValidations": false,
                "event": "cancel",
                "shortcut": "",
                "block": true,
                "mask": false,
                "tableView": true,
                "alwaysEnabled": false,
                "type": "button",
                "input": true,
                "key": "submit2",
                "placeholder": "",
                "prefix": "",
                "customClass": "",
                "suffix": "",
                "multiple": false,
                "defaultValue": null,
                "protected": false,
                "unique": false,
                "persistent": false,
                "hidden": false,
                "clearOnHide": true,
                "dataGridLabel": true,
                "labelPosition": "top",
                "labelWidth": 30,
                "labelMargin": 3,
                "description": "",
                "errorLabel": "",
                "tooltip": "",
                "hideLabel": false,
                "tabindex": "",
                "disabled": false,
                "autofocus": false,
                "dbIndex": false,
                "customDefaultValue": "",
                "calculateValue": "",
                "allowCalculateOverride": false,
                "widget": null,
                "refreshOn": "",
                "clearOnRefresh": false,
                "validateOn": "change",
                "validate": {
                  "required": false,
                  "custom": "",
                  "customPrivate": false
                },
                "conditional": {
                  "show": null,
                  "when": null,
                  "eq": ""
                },
                "size": "md",
                "leftIcon": "",
                "rightIcon": "",
                "disableOnInvalid": false,
                "theme": "default",
                "removeIndents": false,
                "id": "e33bi5f"
              }
            ],
            "width": 6,
            "offset": 0,
            "push": 0,
            "pull": 0,
            "type": "column",
            "input": false,
            "hideOnChildrenHidden": false,
            "key": "column",
            "tableView": true,
            "label": "Column",
            "xs": 0,
            "sm": 12,
            "md": 3,
            "lg": 0,
            "xl": 0,
            "classes": "",
            "index": 0,
            "placeholder": "",
            "prefix": "",
            "customClass": "",
            "suffix": "",
            "multiple": false,
            "defaultValue": null,
            "protected": false,
            "unique": false,
            "persistent": true,
            "hidden": false,
            "clearOnHide": true,
            "dataGridLabel": false,
            "labelPosition": "top",
            "labelWidth": 30,
            "labelMargin": 3,
            "description": "",
            "errorLabel": "",
            "tooltip": "",
            "hideLabel": false,
            "tabindex": "",
            "disabled": false,
            "autofocus": false,
            "dbIndex": false,
            "customDefaultValue": "",
            "calculateValue": "",
            "allowCalculateOverride": false,
            "widget": null,
            "refreshOn": "",
            "clearOnRefresh": false,
            "validateOn": "change",
            "validate": {
              "required": false,
              "custom": "",
              "customPrivate": false
            },
            "conditional": {
              "show": null,
              "when": null,
              "eq": ""
            },
            "id": "e6pj9t"
          },
          {
            "components": [],
            "width": 6,
            "offset": 0,
            "push": 0,
            "pull": 0,
            "type": "column",
            "input": false,
            "hideOnChildrenHidden": false,
            "key": "column",
            "tableView": true,
            "label": "Column",
            "xs": 0,
            "sm": 12,
            "md": 6,
            "xl": 0,
            "classes": "",
            "lg": 0,
            "index": 1,
            "placeholder": "",
            "prefix": "",
            "customClass": "",
            "suffix": "",
            "multiple": false,
            "defaultValue": null,
            "protected": false,
            "unique": false,
            "persistent": true,
            "hidden": false,
            "clearOnHide": true,
            "dataGridLabel": false,
            "labelPosition": "top",
            "labelWidth": 30,
            "labelMargin": 3,
            "description": "",
            "errorLabel": "",
            "tooltip": "",
            "hideLabel": false,
            "tabindex": "",
            "disabled": false,
            "autofocus": false,
            "dbIndex": false,
            "customDefaultValue": "",
            "calculateValue": "",
            "allowCalculateOverride": false,
            "widget": null,
            "refreshOn": "",
            "clearOnRefresh": false,
            "validateOn": "change",
            "validate": {
              "required": false,
              "custom": "",
              "customPrivate": false
            },
            "conditional": {
              "show": null,
              "when": null,
              "eq": ""
            },
            "id": "ese2bv"
          },
          {
            "xs": 0,
            "sm": 12,
            "md": 3,
            "lg": 0,
            "xl": 0,
            "classes": "",
            "type": "column",
            "input": false,
            "hideOnChildrenHidden": false,
            "key": "column",
            "tableView": true,
            "label": "Column",
            "components": [
              {
                "label": "Submit",
                "state": "",
                "theme": "primary",
                "shortcut": "",
                "block": true,
                "disableOnInvalid": true,
                "mask": false,
                "tableView": true,
                "alwaysEnabled": false,
                "type": "button",
                "input": true,
                "key": "submit",
                "validate": {
                  "customMessage": "",
                  "json": "",
                  "required": false,
                  "custom": "",
                  "customPrivate": false
                },
                "conditional": {
                  "show": "",
                  "when": "",
                  "json": "",
                  "eq": ""
                },
                "encrypted": false,
                "properties": {},
                "tags": [],
                "customConditional": "",
                "logic": [],
                "placeholder": "",
                "prefix": "",
                "customClass": "",
                "suffix": "",
                "multiple": false,
                "defaultValue": null,
                "protected": false,
                "unique": false,
                "persistent": false,
                "hidden": false,
                "clearOnHide": true,
                "dataGridLabel": true,
                "labelPosition": "top",
                "labelWidth": 30,
                "labelMargin": 3,
                "description": "",
                "errorLabel": "",
                "tooltip": "",
                "hideLabel": false,
                "tabindex": "",
                "disabled": false,
                "autofocus": false,
                "dbIndex": false,
                "customDefaultValue": "",
                "calculateValue": "",
                "allowCalculateOverride": false,
                "widget": null,
                "refreshOn": "",
                "clearOnRefresh": false,
                "validateOn": "change",
                "size": "md",
                "leftIcon": "",
                "rightIcon": "",
                "action": "submit",
                "removeIndents": false,
                "id": "etyqnlg"
              }
            ],
            "index": 2,
            "placeholder": "",
            "prefix": "",
            "customClass": "",
            "suffix": "",
            "multiple": false,
            "defaultValue": null,
            "protected": false,
            "unique": false,
            "persistent": true,
            "hidden": false,
            "clearOnHide": true,
            "dataGridLabel": false,
            "labelPosition": "top",
            "labelWidth": 30,
            "labelMargin": 3,
            "description": "",
            "errorLabel": "",
            "tooltip": "",
            "hideLabel": false,
            "tabindex": "",
            "disabled": false,
            "autofocus": false,
            "dbIndex": false,
            "customDefaultValue": "",
            "calculateValue": "",
            "allowCalculateOverride": false,
            "widget": null,
            "refreshOn": "",
            "clearOnRefresh": false,
            "validateOn": "change",
            "validate": {
              "required": false,
              "custom": "",
              "customPrivate": false
            },
            "conditional": {
              "show": null,
              "when": null,
              "eq": ""
            },
            "id": "eay7m5g"
          }
        ],
        "mask": false,
        "tableView": false,
        "alwaysEnabled": false,
        "key": "columns2",
        "properties": {},
        "conditional": {
          "json": "",
          "show": "",
          "when": "",
          "eq": ""
        },
        "customConditional": "",
        "logic": [],
        "attributes": {},
        "type": "columns",
        "input": false,
        "tags": [],
        "placeholder": "",
        "prefix": "",
        "customClass": "",
        "suffix": "",
        "multiple": false,
        "defaultValue": null,
        "protected": false,
        "unique": false,
        "persistent": false,
        "hidden": false,
        "clearOnHide": false,
        "dataGridLabel": false,
        "labelPosition": "top",
        "labelWidth": 30,
        "labelMargin": 3,
        "description": "",
        "errorLabel": "",
        "tooltip": "",
        "hideLabel": false,
        "tabindex": "",
        "disabled": false,
        "autofocus": false,
        "dbIndex": false,
        "customDefaultValue": "",
        "calculateValue": "",
        "allowCalculateOverride": false,
        "widget": null,
        "refreshOn": "",
        "clearOnRefresh": false,
        "validateOn": "change",
        "validate": {
          "required": false,
          "custom": "",
          "customPrivate": false
        },
        "inlineColumns": false,
        "autoAdjust": false,
        "hideOnChildrenHidden": false,
        "id": "ekmrcpg"
      }
    ]
  }
}
