{
  "id": "print",
  "name": {
    "ru": "Печатать",
    "en": "Print"
  },
  "type": "open-url",
  "config": {
    "url": "/gateway/alfresco/alfresco/s/citeck/print/printpdf?nodeRef=${?localId}&print=true"
  },
  "evaluator": {
    "type": "has-attribute",
    "config": {
      "attribute": "cm:content"
    }
  }
}

