{
  "id": "DEFAULT",
  "title": "Default form",
  "system": true,
  "description": "Template for other forms",
  "formKey": "DEFAULT",
  "formMode": null,
  "customModule": null,
  "definition": {
    "display": "form",
    "components": [
      {
        "label": "Panel",
        "scrollableContent": true,
        "collapsible": false,
        "mask": false,
        "tableView": false,
        "alwaysEnabled": false,
        "encrypted": false,
        "validate": {
          "customMessage": "",
          "json": "",
          "required": false,
          "custom": "",
          "customPrivate": false
        },
        "key": "panel2",
        "properties": {},
        "conditional": {
          "json": "",
          "show": "",
          "when": "",
          "eq": ""
        },
        "customConditional": "",
        "logic": [],
        "attributes": {},
        "type": "panel",
        "input": false,
        "components": [
          {
            "label": "Title",
            "showWordCount": false,
            "showCharCount": false,
            "tableView": true,
            "alwaysEnabled": false,
            "type": "textfield",
            "allowMultipleMasks": false,
            "input": true,
            "key": "title",
            "defaultValue": "",
            "validate": {
              "customMessage": "",
              "json": "",
              "required": false,
              "custom": "",
              "customPrivate": false,
              "minLength": "",
              "maxLength": "",
              "minWords": "",
              "maxWords": "",
              "pattern": ""
            },
            "inputFormat": "plain",
            "encrypted": false,
            "properties": {
              "attribute": "cm:title"
            },
            "tags": [],
            "widget": {
              "type": "",
              "format": "yyyy-MM-dd hh:mm a",
              "dateFormat": "yyyy-MM-dd hh:mm a",
              "saveAs": "text"
            },
            "placeholder": "",
            "prefix": "",
            "customClass": "",
            "suffix": "",
            "multiple": false,
            "protected": false,
            "unique": false,
            "persistent": true,
            "hidden": false,
            "clearOnHide": true,
            "dataGridLabel": false,
            "labelPosition": "top",
            "labelWidth": 30,
            "labelMargin": 3,
            "description": "",
            "errorLabel": "",
            "tooltip": "",
            "hideLabel": false,
            "tabindex": "",
            "disabled": false,
            "autofocus": false,
            "dbIndex": false,
            "customDefaultValue": "",
            "calculateValue": "",
            "allowCalculateOverride": false,
            "refreshOn": "",
            "clearOnRefresh": false,
            "validateOn": "change",
            "conditional": {
              "show": null,
              "when": null,
              "eq": ""
            },
            "mask": false,
            "inputType": "text",
            "inputMask": "",
            "id": "e4w4a3h"
          },
          {
            "label": "Description",
            "isUploadEnabled": false,
            "showWordCount": false,
            "showCharCount": false,
            "tableView": true,
            "alwaysEnabled": false,
            "type": "textarea",
            "input": true,
            "key": "textArea",
            "properties": {
              "attribute": "cm:description"
            },
            "tags": [],
            "placeholder": "",
            "prefix": "",
            "customClass": "",
            "suffix": "",
            "multiple": false,
            "defaultValue": null,
            "protected": false,
            "unique": false,
            "persistent": true,
            "hidden": false,
            "clearOnHide": true,
            "dataGridLabel": false,
            "labelPosition": "top",
            "labelWidth": 30,
            "labelMargin": 3,
            "description": "",
            "errorLabel": "",
            "tooltip": "",
            "hideLabel": false,
            "tabindex": "",
            "disabled": false,
            "autofocus": false,
            "dbIndex": false,
            "customDefaultValue": "",
            "calculateValue": "",
            "allowCalculateOverride": false,
            "widget": {
              "format": "yyyy-MM-dd hh:mm a",
              "dateFormat": "yyyy-MM-dd hh:mm a",
              "saveAs": "text"
            },
            "refreshOn": "",
            "clearOnRefresh": false,
            "validateOn": "change",
            "validate": {
              "required": false,
              "custom": "",
              "customPrivate": false,
              "minLength": "",
              "maxLength": "",
              "minWords": "",
              "maxWords": "",
              "pattern": ""
            },
            "conditional": {
              "show": null,
              "when": null,
              "eq": ""
            },
            "mask": false,
            "inputType": "text",
            "inputMask": "",
            "rows": 3,
            "wysiwyg": false,
            "editor": "",
            "id": "esqxdav"
          }
        ],
        "tags": [],
        "placeholder": "",
        "prefix": "",
        "customClass": "",
        "suffix": "",
        "multiple": false,
        "defaultValue": null,
        "protected": false,
        "unique": false,
        "persistent": false,
        "hidden": false,
        "clearOnHide": false,
        "dataGridLabel": false,
        "labelPosition": "top",
        "labelWidth": 30,
        "labelMargin": 3,
        "description": "",
        "errorLabel": "",
        "tooltip": "",
        "hideLabel": false,
        "tabindex": "",
        "disabled": false,
        "autofocus": false,
        "dbIndex": false,
        "customDefaultValue": "",
        "calculateValue": "",
        "allowCalculateOverride": false,
        "widget": null,
        "refreshOn": "",
        "clearOnRefresh": false,
        "validateOn": "change",
        "title": "",
        "theme": "default",
        "breadcrumb": "default",
        "lazyLoad": false,
        "id": "e356sh8"
      },
      {
        "label": "Columns",
        "columns": [
          {
            "components": [
              {
                "label": "Cancel",
                "action": "event",
                "state": "",
                "showValidations": false,
                "event": "cancel",
                "shortcut": "",
                "block": true,
                "mask": false,
                "tableView": true,
                "alwaysEnabled": false,
                "type": "button",
                "input": true,
                "key": "submit2",
                "placeholder": "",
                "prefix": "",
                "customClass": "",
                "suffix": "",
                "multiple": false,
                "defaultValue": null,
                "protected": false,
                "unique": false,
                "persistent": false,
                "hidden": false,
                "clearOnHide": true,
                "dataGridLabel": true,
                "labelPosition": "top",
                "labelWidth": 30,
                "labelMargin": 3,
                "description": "",
                "errorLabel": "",
                "tooltip": "",
                "hideLabel": false,
                "tabindex": "",
                "disabled": false,
                "autofocus": false,
                "dbIndex": false,
                "customDefaultValue": "",
                "calculateValue": "",
                "allowCalculateOverride": false,
                "widget": null,
                "refreshOn": "",
                "clearOnRefresh": false,
                "validateOn": "change",
                "validate": {
                  "required": false,
                  "custom": "",
                  "customPrivate": false
                },
                "conditional": {
                  "show": null,
                  "when": null,
                  "eq": ""
                },
                "size": "md",
                "leftIcon": "",
                "rightIcon": "",
                "disableOnInvalid": false,
                "theme": "default",
                "removeIndents": false,
                "id": "ex71ood7"
              }
            ],
            "width": 6,
            "offset": 0,
            "push": 0,
            "pull": 0,
            "type": "column",
            "input": false,
            "hideOnChildrenHidden": false,
            "key": "column",
            "tableView": true,
            "label": "Column",
            "xs": 0,
            "sm": 12,
            "md": 3,
            "lg": 0,
            "xl": 0,
            "classes": "",
            "placeholder": "",
            "prefix": "",
            "customClass": "",
            "suffix": "",
            "multiple": false,
            "defaultValue": null,
            "protected": false,
            "unique": false,
            "persistent": true,
            "hidden": false,
            "clearOnHide": true,
            "dataGridLabel": false,
            "labelPosition": "top",
            "labelWidth": 30,
            "labelMargin": 3,
            "description": "",
            "errorLabel": "",
            "tooltip": "",
            "hideLabel": false,
            "tabindex": "",
            "disabled": false,
            "autofocus": false,
            "dbIndex": false,
            "customDefaultValue": "",
            "calculateValue": "",
            "allowCalculateOverride": false,
            "widget": null,
            "refreshOn": "",
            "clearOnRefresh": false,
            "validateOn": "change",
            "validate": {
              "required": false,
              "custom": "",
              "customPrivate": false
            },
            "conditional": {
              "show": null,
              "when": null,
              "eq": ""
            },
            "id": "epvy0i"
          },
          {
            "components": [],
            "width": 6,
            "offset": 0,
            "push": 0,
            "pull": 0,
            "type": "column",
            "input": false,
            "hideOnChildrenHidden": false,
            "key": "column",
            "tableView": true,
            "label": "Column",
            "xs": 0,
            "sm": 12,
            "md": 6,
            "xl": 0,
            "classes": "",
            "lg": 0,
            "placeholder": "",
            "prefix": "",
            "customClass": "",
            "suffix": "",
            "multiple": false,
            "defaultValue": null,
            "protected": false,
            "unique": false,
            "persistent": true,
            "hidden": false,
            "clearOnHide": true,
            "dataGridLabel": false,
            "labelPosition": "top",
            "labelWidth": 30,
            "labelMargin": 3,
            "description": "",
            "errorLabel": "",
            "tooltip": "",
            "hideLabel": false,
            "tabindex": "",
            "disabled": false,
            "autofocus": false,
            "dbIndex": false,
            "customDefaultValue": "",
            "calculateValue": "",
            "allowCalculateOverride": false,
            "widget": null,
            "refreshOn": "",
            "clearOnRefresh": false,
            "validateOn": "change",
            "validate": {
              "required": false,
              "custom": "",
              "customPrivate": false
            },
            "conditional": {
              "show": null,
              "when": null,
              "eq": ""
            },
            "id": "es83wr"
          },
          {
            "xs": 0,
            "sm": 12,
            "md": 3,
            "lg": 0,
            "xl": 0,
            "classes": "",
            "type": "column",
            "input": false,
            "hideOnChildrenHidden": false,
            "key": "column",
            "tableView": true,
            "label": "Column",
            "components": [
              {
                "label": "Submit",
                "state": "",
                "theme": "primary",
                "shortcut": "",
                "block": true,
                "disableOnInvalid": true,
                "mask": false,
                "tableView": true,
                "alwaysEnabled": false,
                "type": "button",
                "input": true,
                "key": "submit",
                "validate": {
                  "customMessage": "",
                  "json": "",
                  "required": false,
                  "custom": "",
                  "customPrivate": false
                },
                "conditional": {
                  "show": "",
                  "when": "",
                  "json": "",
                  "eq": ""
                },
                "encrypted": false,
                "properties": {},
                "tags": [],
                "customConditional": "",
                "logic": [],
                "placeholder": "",
                "prefix": "",
                "customClass": "",
                "suffix": "",
                "multiple": false,
                "defaultValue": null,
                "protected": false,
                "unique": false,
                "persistent": false,
                "hidden": false,
                "clearOnHide": true,
                "dataGridLabel": true,
                "labelPosition": "top",
                "labelWidth": 30,
                "labelMargin": 3,
                "description": "",
                "errorLabel": "",
                "tooltip": "",
                "hideLabel": false,
                "tabindex": "",
                "disabled": false,
                "autofocus": false,
                "dbIndex": false,
                "customDefaultValue": "",
                "calculateValue": "",
                "allowCalculateOverride": false,
                "widget": null,
                "refreshOn": "",
                "clearOnRefresh": false,
                "validateOn": "change",
                "size": "md",
                "leftIcon": "",
                "rightIcon": "",
                "action": "submit",
                "removeIndents": false,
                "id": "exrdi"
              }
            ],
            "placeholder": "",
            "prefix": "",
            "customClass": "",
            "suffix": "",
            "multiple": false,
            "defaultValue": null,
            "protected": false,
            "unique": false,
            "persistent": true,
            "hidden": false,
            "clearOnHide": true,
            "dataGridLabel": false,
            "labelPosition": "top",
            "labelWidth": 30,
            "labelMargin": 3,
            "description": "",
            "errorLabel": "",
            "tooltip": "",
            "hideLabel": false,
            "tabindex": "",
            "disabled": false,
            "autofocus": false,
            "dbIndex": false,
            "customDefaultValue": "",
            "calculateValue": "",
            "allowCalculateOverride": false,
            "widget": null,
            "refreshOn": "",
            "clearOnRefresh": false,
            "validateOn": "change",
            "validate": {
              "required": false,
              "custom": "",
              "customPrivate": false
            },
            "conditional": {
              "show": null,
              "when": null,
              "eq": ""
            },
            "id": "es828t"
          }
        ],
        "mask": false,
        "tableView": false,
        "alwaysEnabled": false,
        "key": "columns2",
        "properties": {},
        "conditional": {
          "json": "",
          "show": "",
          "when": "",
          "eq": ""
        },
        "customConditional": "",
        "logic": [],
        "attributes": {},
        "type": "columns",
        "input": false,
        "tags": [],
        "placeholder": "",
        "prefix": "",
        "customClass": "",
        "suffix": "",
        "multiple": false,
        "defaultValue": null,
        "protected": false,
        "unique": false,
        "persistent": false,
        "hidden": false,
        "clearOnHide": false,
        "dataGridLabel": false,
        "labelPosition": "top",
        "labelWidth": 30,
        "labelMargin": 3,
        "description": "",
        "errorLabel": "",
        "tooltip": "",
        "hideLabel": false,
        "tabindex": "",
        "disabled": false,
        "autofocus": false,
        "dbIndex": false,
        "customDefaultValue": "",
        "calculateValue": "",
        "allowCalculateOverride": false,
        "widget": null,
        "refreshOn": "",
        "clearOnRefresh": false,
        "validateOn": "change",
        "validate": {
          "required": false,
          "custom": "",
          "customPrivate": false
        },
        "autoAdjust": false,
        "hideOnChildrenHidden": false,
        "id": "eksrobj"
      }
    ]
  },
  "i18n": null
}
