{
  "id": "ecos-module-upload",
  "title": "ecos-module-upload",
  "system": true,
  "formKey": "ecos-module-upload",
  "formMode": null,
  "description": "",
  "customModule": null,
  "i18n": null,
  "definition": {
    "display": "form",
    "components": [
      {
        "label": "Panel",
        "scrollableContent": true,
        "collapsible": false,
        "mask": false,
        "tableView": false,
        "alwaysEnabled": false,
        "encrypted": false,
        "validate": {
          "customMessage": "",
          "json": "",
          "required": false,
          "custom": "",
          "customPrivate": false
        },
        "key": "panel2",
        "properties": {},
        "conditional": {
          "json": "",
          "show": "",
          "when": "",
          "eq": ""
        },
        "customConditional": "",
        "logic": [],
        "attributes": {},
        "type": "panel",
        "input": false,
        "components": [
          {
            "label": "Content (zip for multi-file modules)",
            "mask": false,
            "tableView": true,
            "alwaysEnabled": false,
            "storage": "base64",
            "dir": "",
            "fileNameTemplate": "",
            "webcam": false,
            "fileTypes": [
              {
                "label": "",
                "value": ""
              }
            ],
            "fileMaxSize": "100MB",
            "encrypted": false,
            "validate": {
              "customMessage": "",
              "json": "",
              "required": false,
              "custom": "",
              "customPrivate": false
            },
            "key": "_content",
            "properties": {},
            "conditional": {
              "json": "",
              "show": "",
              "when": "",
              "eq": ""
            },
            "customConditional": "",
            "logic": [],
            "attributes": {},
            "type": "file",
            "input": true,
            "tags": [],
            "placeholder": "",
            "prefix": "",
            "customClass": "",
            "suffix": "",
            "multiple": false,
            "defaultValue": null,
            "protected": false,
            "unique": false,
            "persistent": true,
            "hidden": false,
            "clearOnHide": true,
            "dataGridLabel": false,
            "labelPosition": "top",
            "labelWidth": 30,
            "labelMargin": 3,
            "description": "",
            "errorLabel": "",
            "tooltip": "",
            "hideLabel": false,
            "tabindex": "",
            "disabled": false,
            "autofocus": false,
            "dbIndex": false,
            "customDefaultValue": "",
            "calculateValue": "",
            "allowCalculateOverride": false,
            "widget": null,
            "refreshOn": "",
            "clearOnRefresh": false,
            "validateOn": "change",
            "image": false,
            "privateDownload": false,
            "imageSize": "200",
            "filePattern": "*",
            "fileMinSize": "0KB",
            "uploadOnly": false,
            "defaultOverlayWidth": 200,
            "defaultOverlayHeight": 200,
            "id": "edl65qr"
          }
        ],
        "tags": [],
        "placeholder": "",
        "prefix": "",
        "customClass": "",
        "suffix": "",
        "multiple": false,
        "defaultValue": null,
        "protected": false,
        "unique": false,
        "persistent": false,
        "hidden": false,
        "clearOnHide": false,
        "dataGridLabel": false,
        "labelPosition": "top",
        "labelWidth": 30,
        "labelMargin": 3,
        "description": "",
        "errorLabel": "",
        "tooltip": "",
        "hideLabel": false,
        "tabindex": "",
        "disabled": false,
        "autofocus": false,
        "dbIndex": false,
        "customDefaultValue": "",
        "calculateValue": "",
        "allowCalculateOverride": false,
        "widget": null,
        "refreshOn": "",
        "clearOnRefresh": false,
        "validateOn": "change",
        "title": "",
        "theme": "default",
        "breadcrumb": "default",
        "lazyLoad": false,
        "id": "e4tflt"
      },
      {
        "label": "Columns",
        "columns": [
          {
            "components": [
              {
                "label": "Cancel",
                "action": "event",
                "state": "",
                "showValidations": false,
                "event": "cancel",
                "shortcut": "",
                "block": true,
                "mask": false,
                "tableView": true,
                "alwaysEnabled": false,
                "type": "button",
                "input": true,
                "key": "submit2",
                "placeholder": "",
                "prefix": "",
                "customClass": "",
                "suffix": "",
                "multiple": false,
                "defaultValue": null,
                "protected": false,
                "unique": false,
                "persistent": false,
                "hidden": false,
                "clearOnHide": true,
                "dataGridLabel": true,
                "labelPosition": "top",
                "labelWidth": 30,
                "labelMargin": 3,
                "description": "",
                "errorLabel": "",
                "tooltip": "",
                "hideLabel": false,
                "tabindex": "",
                "disabled": false,
                "autofocus": false,
                "dbIndex": false,
                "customDefaultValue": "",
                "calculateValue": "",
                "allowCalculateOverride": false,
                "widget": null,
                "refreshOn": "",
                "clearOnRefresh": false,
                "validateOn": "change",
                "validate": {
                  "required": false,
                  "custom": "",
                  "customPrivate": false
                },
                "conditional": {
                  "show": null,
                  "when": null,
                  "eq": ""
                },
                "size": "md",
                "leftIcon": "",
                "rightIcon": "",
                "disableOnInvalid": false,
                "theme": "default",
                "removeIndents": false,
                "id": "e08pp6u"
              }
            ],
            "width": 6,
            "offset": 0,
            "push": 0,
            "pull": 0,
            "type": "column",
            "input": false,
            "hideOnChildrenHidden": false,
            "key": "column",
            "tableView": true,
            "label": "Column",
            "xs": 0,
            "sm": 12,
            "md": 3,
            "lg": 0,
            "xl": 0,
            "classes": "",
            "index": 0,
            "placeholder": "",
            "prefix": "",
            "customClass": "",
            "suffix": "",
            "multiple": false,
            "defaultValue": null,
            "protected": false,
            "unique": false,
            "persistent": true,
            "hidden": false,
            "clearOnHide": true,
            "dataGridLabel": false,
            "labelPosition": "top",
            "labelWidth": 30,
            "labelMargin": 3,
            "description": "",
            "errorLabel": "",
            "tooltip": "",
            "hideLabel": false,
            "tabindex": "",
            "disabled": false,
            "autofocus": false,
            "dbIndex": false,
            "customDefaultValue": "",
            "calculateValue": "",
            "allowCalculateOverride": false,
            "widget": null,
            "refreshOn": "",
            "clearOnRefresh": false,
            "validateOn": "change",
            "validate": {
              "required": false,
              "custom": "",
              "customPrivate": false
            },
            "conditional": {
              "show": null,
              "when": null,
              "eq": ""
            },
            "id": "esps0qj"
          },
          {
            "components": [],
            "width": 6,
            "offset": 0,
            "push": 0,
            "pull": 0,
            "type": "column",
            "input": false,
            "hideOnChildrenHidden": false,
            "key": "column",
            "tableView": true,
            "label": "Column",
            "xs": 0,
            "sm": 12,
            "md": 6,
            "xl": 0,
            "classes": "",
            "lg": 0,
            "index": 1,
            "placeholder": "",
            "prefix": "",
            "customClass": "",
            "suffix": "",
            "multiple": false,
            "defaultValue": null,
            "protected": false,
            "unique": false,
            "persistent": true,
            "hidden": false,
            "clearOnHide": true,
            "dataGridLabel": false,
            "labelPosition": "top",
            "labelWidth": 30,
            "labelMargin": 3,
            "description": "",
            "errorLabel": "",
            "tooltip": "",
            "hideLabel": false,
            "tabindex": "",
            "disabled": false,
            "autofocus": false,
            "dbIndex": false,
            "customDefaultValue": "",
            "calculateValue": "",
            "allowCalculateOverride": false,
            "widget": null,
            "refreshOn": "",
            "clearOnRefresh": false,
            "validateOn": "change",
            "validate": {
              "required": false,
              "custom": "",
              "customPrivate": false
            },
            "conditional": {
              "show": null,
              "when": null,
              "eq": ""
            },
            "id": "ejtetb"
          },
          {
            "xs": 0,
            "sm": 12,
            "md": 3,
            "lg": 0,
            "xl": 0,
            "classes": "",
            "type": "column",
            "input": false,
            "hideOnChildrenHidden": false,
            "key": "column",
            "tableView": true,
            "label": "Column",
            "components": [
              {
                "label": "Submit",
                "state": "",
                "theme": "primary",
                "shortcut": "",
                "block": true,
                "disableOnInvalid": true,
                "mask": false,
                "tableView": true,
                "alwaysEnabled": false,
                "type": "button",
                "input": true,
                "key": "submit",
                "validate": {
                  "customMessage": "",
                  "json": "",
                  "required": false,
                  "custom": "",
                  "customPrivate": false
                },
                "conditional": {
                  "show": "",
                  "when": "",
                  "json": "",
                  "eq": ""
                },
                "encrypted": false,
                "properties": {},
                "tags": [],
                "customConditional": "",
                "logic": [],
                "placeholder": "",
                "prefix": "",
                "customClass": "",
                "suffix": "",
                "multiple": false,
                "defaultValue": null,
                "protected": false,
                "unique": false,
                "persistent": false,
                "hidden": false,
                "clearOnHide": true,
                "dataGridLabel": true,
                "labelPosition": "top",
                "labelWidth": 30,
                "labelMargin": 3,
                "description": "",
                "errorLabel": "",
                "tooltip": "",
                "hideLabel": false,
                "tabindex": "",
                "disabled": false,
                "autofocus": false,
                "dbIndex": false,
                "customDefaultValue": "",
                "calculateValue": "",
                "allowCalculateOverride": false,
                "widget": null,
                "refreshOn": "",
                "clearOnRefresh": false,
                "validateOn": "change",
                "size": "md",
                "leftIcon": "",
                "rightIcon": "",
                "action": "submit",
                "removeIndents": false,
                "id": "e9lbnk"
              }
            ],
            "index": 2,
            "placeholder": "",
            "prefix": "",
            "customClass": "",
            "suffix": "",
            "multiple": false,
            "defaultValue": null,
            "protected": false,
            "unique": false,
            "persistent": true,
            "hidden": false,
            "clearOnHide": true,
            "dataGridLabel": false,
            "labelPosition": "top",
            "labelWidth": 30,
            "labelMargin": 3,
            "description": "",
            "errorLabel": "",
            "tooltip": "",
            "hideLabel": false,
            "tabindex": "",
            "disabled": false,
            "autofocus": false,
            "dbIndex": false,
            "customDefaultValue": "",
            "calculateValue": "",
            "allowCalculateOverride": false,
            "widget": null,
            "refreshOn": "",
            "clearOnRefresh": false,
            "validateOn": "change",
            "validate": {
              "required": false,
              "custom": "",
              "customPrivate": false
            },
            "conditional": {
              "show": null,
              "when": null,
              "eq": ""
            },
            "id": "eesin4d"
          }
        ],
        "mask": false,
        "tableView": false,
        "alwaysEnabled": false,
        "key": "columns2",
        "properties": {},
        "conditional": {
          "json": "",
          "show": "",
          "when": "",
          "eq": ""
        },
        "customConditional": "",
        "logic": [],
        "attributes": {},
        "type": "columns",
        "input": false,
        "tags": [],
        "placeholder": "",
        "prefix": "",
        "customClass": "",
        "suffix": "",
        "multiple": false,
        "defaultValue": null,
        "protected": false,
        "unique": false,
        "persistent": false,
        "hidden": false,
        "clearOnHide": false,
        "dataGridLabel": false,
        "labelPosition": "top",
        "labelWidth": 30,
        "labelMargin": 3,
        "description": "",
        "errorLabel": "",
        "tooltip": "",
        "hideLabel": false,
        "tabindex": "",
        "disabled": false,
        "autofocus": false,
        "dbIndex": false,
        "customDefaultValue": "",
        "calculateValue": "",
        "allowCalculateOverride": false,
        "widget": null,
        "refreshOn": "",
        "clearOnRefresh": false,
        "validateOn": "change",
        "validate": {
          "required": false,
          "custom": "",
          "customPrivate": false
        },
        "inlineColumns": false,
        "autoAdjust": false,
        "hideOnChildrenHidden": false,
        "id": "egfx9a4"
      }
    ]
  }
}
